…
    ## date created (size, mb): 2023-09-28 10:18:47.438284 (3.83)

    ## file min/max dates: 1949-10-01 / 2023-09-30

    ## using cached file: /Users/wangyaduo/Library/Caches/org.R-project.R/R/rnoaa/noaa_ghcnd/USS0023B17S.dly

    ## date created (size, mb): 2023-09-28 10:18:50.692538 (0.994)

    ## file min/max dates: 1999-09-01 / 2023-09-30

``` r
weather_df
```

    ## # A tibble: 1,914 × 6
    ##    name           id          date        prcp  tmax  tmin
    ##    <chr>          <chr>       <date>     <dbl> <dbl> <dbl>
    ##  1 CentralPark_NY USW00094728 2022-01-01   201  13.3  10  
    ##  2 CentralPark_NY USW00094728 2022-01-02    10  15     2.8
    ##  3 CentralPark_NY USW00094728 2022-01-03     0   2.8  -5.5
    ##  4 CentralPark_NY USW00094728 2022-01-04     0   1.1  -7.1
    ##  5 CentralPark_NY USW00094728 2022-01-05    58   8.3  -0.5
    ##  6 CentralPark_NY USW00094728 2022-01-06     0   5     1.1
    ##  7 CentralPark_NY USW00094728 2022-01-07    97   1.1  -3.8
    ##  8 CentralPark_NY USW00094728 2022-01-08     0  -1    -6.6
    ##  9 CentralPark_NY USW00094728 2022-01-09    25   4.4  -1.6
    ## 10 CentralPark_NY USW00094728 2022-01-10     0   4.4  -4.3
    ## # ℹ 1,904 more rows
…
